%YAML 1.1
%TAG !u! tag:unity3d.com,2011:
--- !u!114 &11400000
MonoBehaviour:
  m_ObjectHideFlags: 0
  m_PrefabParentObject: {fileID: 0}
  m_PrefabInternal: {fileID: 0}
  m_GameObject: {fileID: 0}
  m_Enabled: 1
  m_EditorHideFlags: 0
  m_Script: {fileID: 11500000, guid: ffdb9cdce01abd045a890dbd1dda0a93, type: 3}
  m_Name: Spades5
  m_EditorClassIdentifier: 
  _state: 0
  _cardValue: 5
  _initialized: 0
  _cardFace: {fileID: 21300000, guid: 3a242747f549ea049a0aa0df89214e51, type: 3}
